<?xml version="1.0" encoding="UTF-8"?>
<!DOCTYPE suite SYSTEM "http://testng.org/testng-1.0.dtd">
<suite guice-stage="DEVELOPMENT" verbose="0" name="Failed suite [Suite]">
  <test thread-count="5" name="Test">
    <classes>
      <class name="Scripts.Dscript"/>
    </classes>
  </test> <!-- Test -->
</suite> <!-- Failed suite [Suite] -->
